[gd_scene load_steps=8 format=2]

[ext_resource path="res://models/materials/generic_lightglow.tres" type="Material" id=1]
[ext_resource path="res://sounds/GWJ35_Lock_Spin.wav" type="AudioStream" id=2]
[ext_resource path="res://ACButton.gd" type="Script" id=3]
[ext_resource path="res://models/obj/ac_button.obj" type="ArrayMesh" id=4]
[ext_resource path="res://models/materials/outline.tres" type="Material" id=5]

[sub_resource type="BoxShape" id=1]
extents = Vector3( 0.0322844, 0.0224404, 0.0174581 )

[sub_resource type="ArrayMesh" id=2]
surfaces/0 = {
"aabb": AABB( -0.0588045, -0.0292409, -0.0323559, 0.114753, 0.084715, 0.0530109 ),
"array_data": PoolByteArray( 246, 31, 101, 61, 68, 24, 175, 188, 157, 25, 255, 188, 0, 0, 129, 0, 129, 0, 0, 127, 253, 40, 79, 56, 75, 200, 43, 187, 78, 241, 83, 61, 166, 135, 4, 189, 0, 0, 129, 0, 130, 0, 0, 127, 253, 40, 35, 56, 156, 193, 88, 189, 135, 145, 224, 188, 157, 25, 255, 188, 0, 0, 129, 0, 129, 0, 0, 127, 184, 43, 79, 56, 246, 31, 101, 61, 68, 24, 175, 188, 157, 25, 255, 188, 101, 76, 0, 0, 127, 0, 0, 127, 253, 40, 79, 56, 192, 208, 83, 187, 212, 56, 99, 61, 173, 52, 169, 60, 101, 76, 0, 0, 127, 0, 0, 127, 253, 40, 35, 56, 75, 200, 43, 187, 78, 241, 83, 61, 166, 135, 4, 189, 101, 76, 0, 0, 127, 0, 0, 127, 253, 40, 35, 56, 156, 193, 88, 189, 135, 145, 224, 188, 157, 25, 255, 188, 0, 129, 0, 0, 127, 0, 0, 127, 184, 43, 79, 56, 190, 86, 98, 61, 138, 138, 239, 188, 173, 52, 169, 60, 0, 129, 0, 0, 127, 0, 0, 127, 253, 40, 79, 56, 246, 31, 101, 61, 68, 24, 175, 188, 157, 25, 255, 188, 0, 129, 0, 0, 127, 0, 0, 127, 253, 40, 79, 56, 75, 200, 43, 187, 78, 241, 83, 61, 166, 135, 4, 189, 155, 76, 0, 0, 127, 0, 0, 127, 253, 40, 35, 56, 8, 221, 112, 189, 134, 113, 181, 188, 173, 52, 169, 60, 155, 76, 0, 0, 127, 0, 0, 127, 184, 43, 79, 56, 156, 193, 88, 189, 135, 145, 224, 188, 157, 25, 255, 188, 155, 76, 0, 0, 127, 0, 0, 127, 184, 43, 79, 56, 190, 86, 98, 61, 138, 138, 239, 188, 173, 52, 169, 60, 101, 76, 0, 0, 127, 0, 0, 127, 253, 40, 79, 56, 8, 221, 112, 189, 134, 113, 181, 188, 173, 52, 169, 60, 0, 129, 0, 0, 127, 0, 0, 127, 184, 43, 79, 56, 192, 208, 83, 187, 212, 56, 99, 61, 173, 52, 169, 60, 155, 76, 0, 0, 127, 0, 0, 127, 253, 40, 35, 56 ),
"array_index_data": PoolByteArray( 0, 0, 2, 0, 1, 0, 3, 0, 5, 0, 4, 0, 6, 0, 8, 0, 7, 0, 9, 0, 11, 0, 10, 0, 12, 0, 3, 0, 4, 0, 13, 0, 6, 0, 7, 0, 14, 0, 9, 0, 10, 0 ),
"blend_shape_data": [  ],
"format": 97559,
"index_count": 21,
"primitive": 4,
"skeleton_aabb": [  ],
"vertex_count": 15
}

[node name="ACButton" type="Area"]
script = ExtResource( 3 )

[node name="CollisionShape" type="CollisionShape" parent="."]
transform = Transform( 1, 0, 0, 0, 1, 0, 0, 0, 1, 0, 0.00750847, 0 )
shape = SubResource( 1 )

[node name="ButtonPressedSound" type="AudioStreamPlayer3D" parent="."]
stream = ExtResource( 2 )

[node name="ac_button2" type="MeshInstance" parent="."]
mesh = ExtResource( 4 )
material/0 = ExtResource( 1 )

[node name="outline" type="MeshInstance" parent="."]
transform = Transform( -1, 0, -8.74228e-08, 0, 1, 0, 4.98187e-08, 0, -0.569859, 0, 0, -0.0251455 )
mesh = SubResource( 2 )
material/0 = ExtResource( 5 )

[connection signal="input_event" from="." to="." method="_on_ACButton_input_event"]
[connection signal="mouse_entered" from="." to="." method="_on_ACButton_mouse_entered"]
[connection signal="mouse_exited" from="." to="." method="_on_ACButton_mouse_exited"]
