[gd_scene load_steps=3 format=2]

[sub_resource type="QuadMesh" id=1]
size = Vector2( 0.02, 0.02 )

[sub_resource type="SpatialMaterial" id=2]
flags_unshaded = true

[node name="ChemicalMachineLight" type="Spatial"]

[node name="Light" type="MeshInstance" parent="."]
mesh = SubResource( 1 )
material/0 = SubResource( 2 )
