[gd_scene load_steps=14 format=2]

[ext_resource path="res://models/materials/generic_lightglow.tres" type="Material" id=1]
[ext_resource path="res://models/obj/computer.obj" type="ArrayMesh" id=2]
[ext_resource path="res://Computer.gd" type="Script" id=3]
[ext_resource path="res://graphics/ComputerScreen.png" type="Texture" id=4]
[ext_resource path="res://sounds/GWJ35_Error.wav" type="AudioStream" id=5]
[ext_resource path="res://sounds/GWJ35_Terminal_Boot.wav" type="AudioStream" id=6]
[ext_resource path="res://models/materials/outline.tres" type="Material" id=7]
[ext_resource path="res://Outliner.tscn" type="PackedScene" id=8]

[sub_resource type="ArrayMesh" id=1]
surfaces/0 = {
"aabb": AABB( -0.173501, -0.026923, -0.198879, 0.343659, 0.183395, 0.281995 ),
"array_data": PoolByteArray( 93, 104, 252, 189, 43, 85, 28, 62, 229, 226, 195, 188, 129, 0, 0, 0, 0, 0, 129, 129, 114, 49, 158, 55, 189, 55, 255, 189, 160, 141, 220, 188, 187, 2, 178, 188, 129, 0, 0, 0, 0, 0, 130, 129, 114, 49, 208, 55, 177, 240, 7, 190, 57, 58, 32, 62, 1, 153, 158, 189, 129, 0, 0, 0, 0, 0, 130, 129, 129, 49, 158, 55, 34, 179, 14, 190, 160, 141, 220, 188, 59, 66, 146, 189, 129, 0, 0, 0, 0, 0, 129, 129, 129, 49, 208, 55, 163, 6, 254, 61, 57, 58, 32, 62, 1, 153, 158, 189, 0, 111, 196, 0, 127, 0, 0, 127, 104, 49, 145, 55, 177, 240, 7, 190, 57, 58, 32, 62, 1, 153, 158, 189, 0, 111, 196, 0, 127, 0, 0, 127, 4, 49, 145, 55, 20, 58, 160, 61, 240, 54, 192, 61, 39, 197, 72, 190, 0, 111, 196, 0, 127, 0, 0, 127, 84, 49, 106, 55, 210, 20, 178, 189, 240, 54, 192, 61, 39, 197, 72, 190, 0, 111, 196, 0, 127, 0, 0, 127, 24, 49, 106, 55, 163, 6, 254, 61, 57, 58, 32, 62, 1, 153, 158, 189, 127, 0, 0, 0, 0, 0, 129, 127, 129, 49, 106, 55, 195, 197, 5, 62, 160, 141, 220, 188, 59, 66, 146, 189, 127, 0, 0, 0, 0, 0, 130, 127, 129, 49, 152, 55, 159, 141, 234, 61, 42, 85, 28, 62, 229, 226, 195, 188, 127, 0, 0, 0, 0, 0, 130, 127, 114, 49, 106, 55, 255, 92, 237, 61, 160, 141, 220, 188, 187, 2, 178, 188, 127, 0, 0, 0, 0, 0, 129, 127, 114, 49, 152, 55, 74, 2, 179, 189, 90, 149, 227, 61, 228, 54, 37, 189, 0, 129, 0, 0, 127, 0, 0, 129, 34, 47, 117, 55, 140, 39, 161, 61, 90, 149, 227, 61, 228, 54, 37, 189, 0, 129, 0, 0, 127, 0, 0, 129, 88, 48, 117, 55, 198, 214, 179, 189, 214, 105, 228, 61, 124, 170, 74, 189, 0, 129, 0, 0, 127, 0, 0, 129, 34, 47, 108, 55, 8, 252, 161, 61, 214, 105, 228, 61, 124, 170, 74, 189, 0, 129, 0, 0, 127, 0, 0, 129, 88, 48, 108, 55, 177, 240, 7, 190, 57, 58, 32, 62, 1, 153, 158, 189, 0, 127, 0, 0, 127, 0, 0, 127, 4, 49, 145, 55, 163, 6, 254, 61, 57, 58, 32, 62, 1, 153, 158, 189, 0, 127, 0, 0, 126, 0, 0, 127, 104, 49, 145, 55, 93, 104, 252, 189, 43, 85, 28, 62, 229, 226, 195, 188, 0, 127, 0, 0, 126, 0, 0, 127, 4, 49, 155, 55, 159, 141, 234, 61, 42, 85, 28, 62, 229, 226, 195, 188, 0, 127, 0, 0, 127, 0, 0, 127, 104, 49, 155, 55, 210, 20, 178, 189, 240, 54, 192, 61, 39, 197, 72, 190, 0, 0, 129, 0, 127, 0, 0, 129, 15, 48, 46, 56, 228, 253, 180, 189, 160, 141, 220, 188, 210, 166, 75, 190, 0, 0, 129, 0, 127, 0, 0, 129, 15, 48, 102, 56, 20, 58, 160, 61, 240, 54, 192, 61, 39, 197, 72, 190, 0, 0, 129, 0, 127, 0, 0, 129, 253, 48, 46, 56, 38, 35, 163, 61, 160, 141, 220, 188, 210, 166, 75, 190, 0, 0, 129, 0, 127, 0, 0, 129, 253, 48, 102, 56, 177, 240, 7, 190, 57, 58, 32, 62, 1, 153, 158, 189, 137, 0, 213, 0, 43, 13, 138, 129, 129, 49, 106, 55, 34, 179, 14, 190, 160, 141, 220, 188, 59, 66, 146, 189, 137, 0, 213, 0, 43, 7, 137, 129, 129, 49, 152, 55, 210, 20, 178, 189, 240, 54, 192, 61, 39, 197, 72, 190, 137, 0, 213, 0, 43, 8, 137, 129, 184, 49, 126, 55, 228, 253, 180, 189, 160, 141, 220, 188, 210, 166, 75, 190, 137, 0, 213, 0, 43, 0, 137, 129, 184, 49, 152, 55, 195, 197, 5, 62, 160, 141, 220, 188, 59, 66, 146, 189, 119, 0, 213, 0, 213, 0, 137, 127, 129, 49, 208, 55, 163, 6, 254, 61, 57, 58, 32, 62, 1, 153, 158, 189, 119, 0, 213, 0, 213, 6, 137, 127, 129, 49, 158, 55, 38, 35, 163, 61, 160, 141, 220, 188, 210, 166, 75, 190, 119, 0, 213, 0, 213, 5, 137, 127, 184, 49, 208, 55, 20, 58, 160, 61, 240, 54, 192, 61, 39, 197, 72, 190, 119, 0, 213, 0, 213, 14, 138, 127, 184, 49, 178, 55, 74, 2, 179, 189, 90, 149, 227, 61, 228, 54, 37, 189, 56, 0, 113, 0, 112, 20, 200, 127, 237, 46, 143, 55, 140, 106, 180, 189, 147, 72, 142, 59, 72, 122, 31, 189, 56, 0, 113, 0, 113, 244, 200, 127, 237, 46, 239, 55, 93, 104, 252, 189, 43, 85, 28, 62, 229, 226, 195, 188, 56, 0, 113, 0, 112, 14, 200, 127, 184, 46, 126, 55, 189, 55, 255, 189, 160, 141, 220, 188, 187, 2, 178, 188, 56, 0, 113, 0, 112, 241, 200, 127, 184, 46, 0, 56, 206, 143, 162, 61, 147, 72, 142, 59, 72, 122, 31, 189, 200, 0, 113, 0, 112, 20, 56, 127, 75, 48, 239, 55, 140, 39, 161, 61, 90, 149, 227, 61, 228, 54, 37, 189, 200, 0, 113, 0, 113, 244, 56, 127, 75, 48, 143, 55, 255, 92, 237, 61, 160, 141, 220, 188, 187, 2, 178, 188, 200, 0, 113, 0, 112, 14, 56, 127, 101, 48, 0, 56, 159, 141, 234, 61, 42, 85, 28, 62, 229, 226, 195, 188, 200, 0, 113, 0, 112, 241, 56, 127, 101, 48, 126, 55, 140, 106, 180, 189, 147, 72, 142, 59, 72, 122, 31, 189, 0, 56, 113, 0, 127, 0, 0, 127, 237, 46, 239, 55, 206, 143, 162, 61, 147, 72, 142, 59, 72, 122, 31, 189, 0, 56, 113, 0, 127, 0, 0, 127, 75, 48, 239, 55, 189, 55, 255, 189, 160, 141, 220, 188, 187, 2, 178, 188, 0, 56, 113, 0, 127, 0, 0, 127, 184, 46, 0, 56, 255, 92, 237, 61, 160, 141, 220, 188, 187, 2, 178, 188, 0, 56, 113, 0, 127, 0, 0, 127, 101, 48, 0, 56, 140, 39, 161, 61, 90, 149, 227, 61, 228, 54, 37, 189, 0, 200, 113, 0, 127, 0, 0, 127, 75, 48, 143, 55, 74, 2, 179, 189, 90, 149, 227, 61, 228, 54, 37, 189, 0, 200, 113, 0, 127, 0, 0, 127, 237, 46, 143, 55, 159, 141, 234, 61, 42, 85, 28, 62, 229, 226, 195, 188, 0, 200, 113, 0, 126, 0, 0, 127, 101, 48, 126, 55, 93, 104, 252, 189, 43, 85, 28, 62, 229, 226, 195, 188, 0, 200, 113, 0, 127, 0, 0, 127, 184, 46, 126, 55, 8, 252, 161, 61, 214, 105, 228, 61, 124, 170, 74, 189, 0, 0, 127, 0, 127, 0, 0, 127, 245, 51, 4, 56, 8, 252, 161, 61, 247, 132, 151, 59, 124, 170, 74, 189, 0, 0, 127, 0, 127, 0, 0, 127, 245, 51, 88, 56, 198, 214, 179, 189, 214, 105, 228, 61, 124, 170, 74, 189, 0, 0, 127, 0, 127, 0, 0, 127, 114, 50, 4, 56, 198, 214, 179, 189, 247, 132, 151, 59, 124, 170, 74, 189, 0, 0, 127, 0, 127, 0, 0, 127, 114, 50, 88, 56, 140, 39, 161, 61, 90, 149, 227, 61, 228, 54, 37, 189, 129, 0, 0, 0, 0, 0, 129, 129, 114, 48, 126, 55, 206, 143, 162, 61, 147, 72, 142, 59, 72, 122, 31, 189, 129, 0, 0, 0, 0, 0, 129, 129, 114, 48, 213, 55, 8, 252, 161, 61, 214, 105, 228, 61, 124, 170, 74, 189, 129, 0, 0, 0, 0, 0, 129, 129, 128, 48, 126, 55, 8, 252, 161, 61, 247, 132, 151, 59, 124, 170, 74, 189, 129, 0, 0, 0, 0, 0, 129, 129, 128, 48, 213, 55, 206, 143, 162, 61, 147, 72, 142, 59, 72, 122, 31, 189, 0, 127, 0, 0, 127, 0, 0, 127, 88, 48, 117, 55, 140, 106, 180, 189, 147, 72, 142, 59, 72, 122, 31, 189, 0, 127, 0, 0, 127, 0, 0, 127, 34, 47, 117, 55, 8, 252, 161, 61, 247, 132, 151, 59, 124, 170, 74, 189, 0, 127, 0, 0, 127, 0, 0, 127, 88, 48, 108, 55, 198, 214, 179, 189, 247, 132, 151, 59, 124, 170, 74, 189, 0, 127, 0, 0, 127, 0, 0, 127, 34, 47, 108, 55, 140, 106, 180, 189, 147, 72, 142, 59, 72, 122, 31, 189, 127, 0, 0, 0, 0, 0, 129, 127, 114, 48, 213, 55, 74, 2, 179, 189, 90, 149, 227, 61, 228, 54, 37, 189, 127, 0, 0, 0, 0, 0, 129, 127, 114, 48, 126, 55, 198, 214, 179, 189, 247, 132, 151, 59, 124, 170, 74, 189, 127, 0, 0, 0, 0, 0, 129, 127, 128, 48, 213, 55, 198, 214, 179, 189, 214, 105, 228, 61, 124, 170, 74, 189, 127, 0, 0, 0, 0, 0, 129, 127, 128, 48, 126, 55, 251, 1, 47, 190, 28, 41, 176, 187, 51, 232, 164, 61, 129, 0, 0, 0, 0, 0, 129, 129, 200, 33, 229, 53, 72, 170, 49, 190, 160, 141, 220, 188, 203, 56, 170, 61, 129, 0, 0, 0, 0, 0, 130, 129, 200, 33, 3, 54, 251, 1, 47, 190, 28, 41, 176, 187, 6, 235, 184, 188, 129, 0, 0, 0, 0, 0, 130, 129, 130, 42, 229, 53, 72, 170, 49, 190, 160, 141, 220, 188, 104, 45, 206, 188, 129, 0, 0, 0, 0, 0, 129, 129, 130, 42, 3, 54, 251, 1, 47, 190, 28, 41, 176, 187, 6, 235, 184, 188, 0, 0, 129, 0, 127, 0, 0, 129, 200, 33, 198, 53, 72, 170, 49, 190, 160, 141, 220, 188, 104, 45, 206, 188, 0, 0, 129, 0, 127, 0, 0, 129, 200, 33, 229, 53, 48, 82, 168, 61, 28, 41, 176, 187, 6, 235, 184, 188, 0, 0, 129, 0, 127, 0, 0, 129, 151, 47, 198, 53, 200, 162, 173, 61, 160, 141, 220, 188, 104, 45, 206, 188, 0, 0, 129, 0, 127, 0, 0, 129, 151, 47, 229, 53, 48, 82, 168, 61, 28, 41, 176, 187, 6, 235, 184, 188, 127, 0, 0, 0, 0, 0, 129, 127, 201, 45, 229, 53, 200, 162, 173, 61, 160, 141, 220, 188, 104, 45, 206, 188, 127, 0, 0, 0, 0, 0, 130, 127, 201, 45, 3, 54, 48, 82, 168, 61, 28, 41, 176, 187, 51, 232, 164, 61, 127, 0, 0, 0, 0, 0, 130, 127, 130, 42, 229, 53, 200, 162, 173, 61, 160, 141, 220, 188, 203, 56, 170, 61, 127, 0, 0, 0, 0, 0, 129, 127, 130, 42, 3, 54, 48, 82, 168, 61, 28, 41, 176, 187, 51, 232, 164, 61, 0, 0, 127, 0, 127, 0, 0, 127, 151, 47, 3, 54, 200, 162, 173, 61, 160, 141, 220, 188, 203, 56, 170, 61, 0, 0, 127, 0, 127, 0, 0, 127, 151, 47, 34, 54, 251, 1, 47, 190, 28, 41, 176, 187, 51, 232, 164, 61, 0, 0, 127, 0, 127, 0, 0, 127, 200, 33, 3, 54, 72, 170, 49, 190, 160, 141, 220, 188, 203, 56, 170, 61, 0, 0, 127, 0, 127, 0, 0, 127, 200, 33, 34, 54, 107, 15, 182, 61, 84, 114, 24, 188, 236, 36, 90, 61, 129, 0, 0, 0, 0, 0, 129, 129, 244, 43, 13, 53, 81, 38, 177, 61, 160, 141, 220, 188, 78, 144, 89, 61, 129, 0, 0, 0, 0, 0, 129, 129, 244, 43, 44, 53, 109, 162, 181, 61, 34, 229, 20, 60, 77, 105, 4, 60, 129, 0, 0, 0, 0, 0, 129, 129, 15, 45, 238, 52, 23, 53, 180, 61, 53, 185, 2, 188, 146, 13, 96, 188, 129, 0, 0, 0, 0, 0, 129, 129, 108, 45, 13, 53, 81, 38, 177, 61, 160, 141, 220, 188, 197, 131, 120, 188, 129, 0, 0, 0, 0, 0, 129, 129, 108, 45, 44, 53, 164, 186, 18, 62, 53, 185, 2, 188, 146, 13, 96, 188, 127, 0, 0, 0, 0, 0, 129, 127, 86, 40, 13, 53, 8, 66, 20, 62, 160, 141, 220, 188, 197, 131, 120, 188, 127, 0, 0, 0, 0, 0, 129, 127, 86, 40, 44, 53, 249, 3, 18, 62, 34, 229, 20, 60, 78, 105, 4, 60, 127, 0, 0, 0, 0, 0, 129, 127, 59, 39, 238, 52, 123, 205, 17, 62, 84, 114, 24, 188, 236, 36, 90, 61, 127, 0, 0, 0, 0, 0, 129, 127, 200, 33, 13, 53, 8, 66, 20, 62, 160, 141, 220, 188, 78, 144, 89, 61, 127, 0, 0, 0, 0, 0, 129, 127, 200, 33, 44, 53, 123, 205, 17, 62, 84, 114, 24, 188, 236, 36, 90, 61, 0, 0, 127, 0, 127, 0, 0, 127, 59, 43, 13, 53, 8, 66, 20, 62, 160, 141, 220, 188, 78, 144, 89, 61, 0, 0, 127, 0, 127, 0, 0, 127, 59, 43, 44, 53, 107, 15, 182, 61, 84, 114, 24, 188, 236, 36, 90, 61, 0, 0, 127, 0, 127, 0, 0, 127, 15, 41, 13, 53, 81, 38, 177, 61, 160, 141, 220, 188, 78, 144, 89, 61, 0, 0, 127, 0, 127, 0, 0, 127, 15, 41, 44, 53, 109, 162, 181, 61, 34, 229, 20, 60, 77, 105, 4, 60, 0, 120, 40, 0, 127, 0, 0, 127, 15, 41, 146, 52, 249, 3, 18, 62, 34, 229, 20, 60, 78, 105, 4, 60, 0, 120, 40, 0, 127, 0, 0, 127, 59, 43, 146, 52, 107, 15, 182, 61, 84, 114, 24, 188, 236, 36, 90, 61, 0, 120, 40, 0, 127, 0, 0, 127, 15, 41, 13, 53, 123, 205, 17, 62, 84, 114, 24, 188, 236, 36, 90, 61, 0, 120, 40, 0, 127, 0, 0, 127, 59, 43, 13, 53, 222, 51, 93, 188, 26, 162, 138, 188, 49, 108, 203, 60, 0, 0, 129, 0, 127, 0, 0, 129, 15, 49, 65, 54, 0, 6, 203, 60, 26, 162, 138, 188, 49, 108, 203, 60, 0, 0, 129, 0, 127, 0, 0, 129, 62, 49, 65, 54, 26, 175, 50, 188, 247, 132, 151, 59, 147, 174, 224, 60, 0, 0, 129, 0, 127, 0, 0, 129, 15, 49, 34, 54, 158, 195, 181, 60, 247, 132, 151, 59, 147, 174, 224, 60, 0, 0, 129, 0, 127, 0, 0, 129, 62, 49, 34, 54, 48, 82, 168, 61, 28, 41, 176, 187, 51, 232, 164, 61, 0, 127, 0, 0, 127, 0, 0, 127, 133, 48, 25, 55, 251, 1, 47, 190, 28, 41, 176, 187, 51, 232, 164, 61, 0, 127, 0, 0, 127, 0, 0, 127, 200, 33, 25, 55, 48, 82, 168, 61, 28, 41, 176, 187, 6, 235, 184, 188, 0, 127, 0, 0, 127, 0, 0, 127, 133, 48, 34, 54, 251, 1, 47, 190, 28, 41, 176, 187, 6, 235, 184, 188, 0, 127, 0, 0, 127, 0, 0, 127, 200, 33, 34, 54, 194, 120, 14, 61, 26, 162, 138, 188, 220, 171, 14, 61, 127, 0, 0, 0, 0, 0, 129, 127, 154, 49, 157, 54, 194, 120, 14, 61, 26, 162, 138, 188, 234, 189, 149, 61, 127, 0, 0, 0, 0, 0, 129, 127, 108, 49, 157, 54, 146, 215, 3, 61, 104, 78, 151, 188, 12, 77, 25, 61, 127, 0, 0, 0, 0, 0, 129, 127, 154, 49, 127, 54, 146, 215, 3, 61, 247, 132, 151, 59, 81, 109, 144, 61, 127, 0, 0, 0, 0, 0, 129, 127, 108, 49, 127, 54, 196, 251, 255, 187, 247, 132, 151, 59, 81, 109, 144, 61, 0, 127, 0, 0, 127, 0, 0, 127, 201, 45, 250, 54, 139, 196, 36, 190, 247, 132, 151, 59, 81, 109, 144, 61, 0, 127, 0, 0, 127, 0, 0, 127, 86, 36, 250, 54, 196, 251, 255, 187, 104, 78, 151, 188, 170, 27, 168, 60, 0, 127, 0, 0, 127, 0, 0, 127, 201, 45, 96, 54, 196, 251, 255, 187, 104, 78, 151, 188, 170, 27, 168, 60, 0, 127, 0, 0, 127, 0, 0, 127, 201, 45, 96, 54, 139, 196, 36, 190, 247, 132, 151, 59, 81, 109, 144, 61, 0, 127, 0, 0, 127, 0, 0, 127, 86, 36, 250, 54, 18, 67, 171, 188, 104, 78, 151, 188, 170, 27, 168, 60, 0, 127, 0, 0, 127, 0, 0, 127, 37, 46, 96, 54, 18, 67, 171, 188, 104, 78, 151, 188, 90, 249, 37, 61, 0, 127, 0, 0, 127, 0, 0, 127, 37, 46, 157, 54, 146, 215, 3, 61, 247, 132, 151, 59, 90, 249, 37, 61, 0, 127, 0, 0, 127, 0, 0, 127, 59, 47, 157, 54, 146, 215, 3, 61, 247, 132, 151, 59, 90, 249, 37, 61, 0, 127, 0, 0, 127, 0, 0, 127, 59, 47, 157, 54, 139, 196, 36, 190, 247, 132, 151, 59, 81, 109, 144, 61, 0, 127, 0, 0, 127, 0, 0, 127, 86, 36, 250, 54, 146, 215, 3, 61, 247, 132, 151, 59, 1, 255, 77, 188, 0, 127, 0, 0, 126, 0, 0, 127, 59, 47, 65, 54, 139, 196, 36, 190, 247, 132, 151, 59, 1, 255, 77, 188, 0, 127, 0, 0, 127, 0, 0, 127, 86, 36, 65, 54, 116, 133, 192, 188, 26, 162, 138, 188, 12, 94, 189, 60, 0, 0, 127, 0, 127, 0, 0, 127, 86, 48, 198, 53, 60, 242, 170, 187, 26, 162, 138, 188, 12, 94, 189, 60, 0, 0, 127, 0, 127, 0, 0, 127, 40, 48, 198, 53, 18, 67, 171, 188, 104, 78, 151, 188, 170, 27, 168, 60, 0, 0, 127, 0, 127, 0, 0, 127, 86, 48, 167, 53, 196, 251, 255, 187, 104, 78, 151, 188, 170, 27, 168, 60, 0, 0, 127, 0, 127, 0, 0, 127, 40, 48, 167, 53, 194, 120, 14, 61, 26, 162, 138, 188, 197, 131, 120, 188, 127, 0, 0, 0, 0, 0, 129, 127, 154, 49, 229, 53, 194, 120, 14, 61, 26, 162, 138, 188, 140, 154, 48, 61, 127, 0, 0, 0, 0, 0, 130, 127, 15, 49, 229, 53, 146, 215, 3, 61, 247, 132, 151, 59, 1, 255, 77, 188, 127, 0, 0, 0, 0, 0, 130, 127, 154, 49, 198, 53, 146, 215, 3, 61, 247, 132, 151, 59, 90, 249, 37, 61, 127, 0, 0, 0, 0, 0, 129, 127, 15, 49, 198, 53, 3, 107, 156, 60, 247, 132, 151, 59, 81, 109, 144, 61, 0, 127, 0, 0, 127, 0, 0, 127, 151, 47, 250, 54, 3, 107, 156, 60, 247, 132, 151, 59, 220, 159, 40, 187, 0, 127, 0, 0, 126, 0, 0, 127, 151, 47, 96, 54, 78, 215, 147, 61, 247, 132, 151, 59, 81, 109, 144, 61, 0, 127, 0, 0, 126, 0, 0, 127, 86, 48, 250, 54, 78, 215, 147, 61, 247, 132, 151, 59, 220, 159, 40, 187, 0, 127, 0, 0, 127, 0, 0, 127, 86, 48, 96, 54, 230, 39, 153, 61, 26, 162, 138, 188, 234, 189, 149, 61, 0, 0, 127, 0, 127, 0, 0, 127, 83, 50, 34, 54, 161, 40, 135, 60, 26, 162, 138, 188, 234, 189, 149, 61, 0, 0, 127, 0, 127, 0, 0, 127, 201, 49, 34, 54, 78, 215, 147, 61, 247, 132, 151, 59, 81, 109, 144, 61, 0, 0, 127, 0, 127, 0, 0, 127, 83, 50, 3, 54, 3, 107, 156, 60, 247, 132, 151, 59, 81, 109, 144, 61, 0, 0, 127, 0, 127, 0, 0, 127, 201, 49, 3, 54, 60, 242, 170, 187, 26, 162, 138, 188, 12, 94, 189, 60, 127, 0, 0, 0, 0, 0, 129, 127, 179, 44, 167, 53, 60, 242, 170, 187, 26, 162, 138, 188, 234, 189, 149, 61, 127, 0, 0, 0, 0, 0, 129, 127, 201, 41, 167, 53, 196, 251, 255, 187, 104, 78, 151, 188, 170, 27, 168, 60, 127, 0, 0, 0, 0, 0, 129, 127, 179, 44, 136, 53, 196, 251, 255, 187, 247, 132, 151, 59, 81, 109, 144, 61, 127, 0, 0, 0, 0, 0, 129, 127, 201, 41, 136, 53, 194, 120, 14, 61, 26, 162, 138, 188, 234, 189, 149, 61, 0, 0, 127, 0, 127, 0, 0, 127, 108, 49, 188, 54, 116, 133, 192, 188, 26, 162, 138, 188, 234, 189, 149, 61, 0, 0, 127, 0, 127, 0, 0, 127, 225, 48, 188, 54, 146, 215, 3, 61, 247, 132, 151, 59, 81, 109, 144, 61, 0, 0, 127, 0, 127, 0, 0, 127, 108, 49, 157, 54, 18, 67, 171, 188, 247, 132, 151, 59, 81, 109, 144, 61, 0, 0, 127, 0, 127, 0, 0, 127, 225, 48, 157, 54, 216, 108, 39, 190, 26, 162, 138, 188, 234, 189, 149, 61, 129, 0, 0, 0, 0, 0, 129, 129, 200, 33, 167, 53, 216, 108, 39, 190, 26, 162, 138, 188, 197, 131, 120, 188, 129, 0, 0, 0, 0, 0, 129, 129, 201, 41, 167, 53, 139, 196, 36, 190, 247, 132, 151, 59, 81, 109, 144, 61, 129, 0, 0, 0, 0, 0, 129, 129, 200, 33, 136, 53, 139, 196, 36, 190, 247, 132, 151, 59, 1, 255, 77, 188, 129, 0, 0, 0, 0, 0, 129, 129, 201, 41, 136, 53, 60, 242, 170, 187, 26, 162, 138, 188, 234, 189, 149, 61, 0, 0, 127, 0, 127, 0, 0, 127, 13, 51, 25, 55, 216, 108, 39, 190, 26, 162, 138, 188, 234, 189, 149, 61, 0, 0, 127, 0, 127, 0, 0, 127, 179, 48, 25, 55, 196, 251, 255, 187, 247, 132, 151, 59, 81, 109, 144, 61, 0, 0, 127, 0, 127, 0, 0, 127, 13, 51, 250, 54, 139, 196, 36, 190, 247, 132, 151, 59, 81, 109, 144, 61, 0, 0, 127, 0, 127, 0, 0, 127, 179, 48, 250, 54, 116, 133, 192, 188, 26, 162, 138, 188, 234, 189, 149, 61, 129, 0, 0, 0, 0, 0, 129, 129, 179, 48, 157, 54, 116, 133, 192, 188, 26, 162, 138, 188, 220, 171, 14, 61, 129, 0, 0, 0, 0, 0, 129, 129, 225, 48, 157, 54, 18, 67, 171, 188, 247, 132, 151, 59, 81, 109, 144, 61, 129, 0, 0, 0, 0, 0, 129, 129, 179, 48, 127, 54, 18, 67, 171, 188, 247, 132, 151, 59, 12, 77, 25, 61, 129, 0, 0, 0, 0, 0, 129, 129, 225, 48, 127, 54, 216, 108, 39, 190, 26, 162, 138, 188, 197, 131, 120, 188, 0, 0, 129, 0, 127, 0, 0, 129, 179, 48, 250, 54, 194, 120, 14, 61, 26, 162, 138, 188, 197, 131, 120, 188, 0, 0, 129, 0, 127, 0, 0, 129, 198, 51, 250, 54, 139, 196, 36, 190, 247, 132, 151, 59, 1, 255, 77, 188, 0, 0, 129, 0, 127, 0, 0, 129, 179, 48, 219, 54, 146, 215, 3, 61, 247, 132, 151, 59, 1, 255, 77, 188, 0, 0, 129, 0, 127, 0, 0, 129, 198, 51, 219, 54, 116, 133, 192, 188, 26, 162, 138, 188, 220, 171, 14, 61, 0, 0, 129, 0, 127, 0, 0, 129, 225, 48, 127, 54, 222, 51, 93, 188, 26, 162, 138, 188, 220, 171, 14, 61, 0, 0, 129, 0, 127, 0, 0, 129, 15, 49, 127, 54, 18, 67, 171, 188, 247, 132, 151, 59, 12, 77, 25, 61, 0, 0, 129, 0, 127, 0, 0, 129, 225, 48, 96, 54, 26, 175, 50, 188, 104, 78, 151, 188, 12, 77, 25, 61, 0, 0, 129, 0, 127, 0, 0, 129, 15, 49, 96, 54, 116, 133, 192, 188, 26, 162, 138, 188, 140, 154, 48, 61, 129, 0, 0, 0, 0, 0, 129, 129, 40, 48, 229, 53, 116, 133, 192, 188, 26, 162, 138, 188, 12, 94, 189, 60, 129, 0, 0, 0, 0, 0, 129, 129, 133, 48, 229, 53, 18, 67, 171, 188, 104, 78, 151, 188, 90, 249, 37, 61, 129, 0, 0, 0, 0, 0, 129, 129, 40, 48, 198, 53, 18, 67, 171, 188, 104, 78, 151, 188, 170, 27, 168, 60, 129, 0, 0, 0, 0, 0, 129, 129, 133, 48, 198, 53, 222, 51, 93, 188, 26, 162, 138, 188, 220, 171, 14, 61, 129, 0, 0, 0, 0, 0, 129, 129, 225, 48, 96, 54, 222, 51, 93, 188, 26, 162, 138, 188, 49, 108, 203, 60, 129, 0, 0, 0, 0, 0, 129, 129, 15, 49, 96, 54, 26, 175, 50, 188, 104, 78, 151, 188, 12, 77, 25, 61, 129, 0, 0, 0, 0, 0, 129, 129, 225, 48, 65, 54, 26, 175, 50, 188, 247, 132, 151, 59, 147, 174, 224, 60, 129, 0, 0, 0, 0, 0, 129, 129, 15, 49, 65, 54, 161, 40, 135, 60, 26, 162, 138, 188, 234, 189, 149, 61, 129, 0, 0, 0, 0, 0, 129, 129, 83, 50, 34, 54, 161, 40, 135, 60, 26, 162, 138, 188, 118, 89, 169, 187, 129, 0, 0, 0, 0, 0, 129, 129, 59, 51, 34, 54, 3, 107, 156, 60, 247, 132, 151, 59, 81, 109, 144, 61, 129, 0, 0, 0, 0, 0, 129, 129, 83, 50, 3, 54, 3, 107, 156, 60, 247, 132, 151, 59, 220, 159, 40, 187, 129, 0, 0, 0, 0, 0, 129, 129, 59, 51, 3, 54, 26, 175, 50, 188, 104, 78, 151, 188, 12, 77, 25, 61, 0, 127, 0, 0, 127, 0, 0, 127, 130, 46, 219, 54, 26, 175, 50, 188, 247, 132, 151, 59, 147, 174, 224, 60, 0, 127, 0, 0, 127, 0, 0, 127, 130, 46, 188, 54, 18, 67, 171, 188, 247, 132, 151, 59, 12, 77, 25, 61, 0, 127, 0, 0, 126, 0, 0, 127, 37, 46, 219, 54, 18, 67, 171, 188, 247, 132, 151, 59, 12, 77, 25, 61, 0, 127, 0, 0, 127, 0, 0, 127, 37, 46, 219, 54, 26, 175, 50, 188, 247, 132, 151, 59, 147, 174, 224, 60, 0, 127, 0, 0, 126, 0, 0, 127, 130, 46, 188, 54, 18, 67, 171, 188, 247, 132, 151, 59, 81, 109, 144, 61, 0, 127, 0, 0, 127, 0, 0, 127, 37, 46, 250, 54, 146, 215, 3, 61, 247, 132, 151, 59, 81, 109, 144, 61, 0, 127, 0, 0, 127, 0, 0, 127, 59, 47, 250, 54, 146, 215, 3, 61, 104, 78, 151, 188, 12, 77, 25, 61, 0, 127, 0, 0, 127, 0, 0, 127, 59, 47, 219, 54, 146, 215, 3, 61, 104, 78, 151, 188, 12, 77, 25, 61, 0, 127, 0, 0, 127, 0, 0, 127, 59, 47, 219, 54, 26, 175, 50, 188, 247, 132, 151, 59, 147, 174, 224, 60, 0, 127, 0, 0, 127, 0, 0, 127, 130, 46, 188, 54, 158, 195, 181, 60, 247, 132, 151, 59, 12, 77, 25, 61, 0, 127, 0, 0, 127, 0, 0, 127, 222, 46, 219, 54, 158, 195, 181, 60, 247, 132, 151, 59, 12, 77, 25, 61, 0, 127, 0, 0, 127, 0, 0, 127, 222, 46, 219, 54, 26, 175, 50, 188, 247, 132, 151, 59, 147, 174, 224, 60, 0, 127, 0, 0, 126, 0, 0, 127, 130, 46, 188, 54, 158, 195, 181, 60, 247, 132, 151, 59, 147, 174, 224, 60, 0, 127, 0, 0, 127, 0, 0, 127, 222, 46, 188, 54, 0, 6, 203, 60, 26, 162, 138, 188, 49, 108, 203, 60, 127, 0, 0, 0, 0, 0, 129, 127, 108, 49, 96, 54, 0, 6, 203, 60, 26, 162, 138, 188, 220, 171, 14, 61, 127, 0, 0, 0, 0, 0, 129, 127, 62, 49, 96, 54, 158, 195, 181, 60, 247, 132, 151, 59, 147, 174, 224, 60, 127, 0, 0, 0, 0, 0, 129, 127, 108, 49, 65, 54, 158, 195, 181, 60, 247, 132, 151, 59, 12, 77, 25, 61, 127, 0, 0, 0, 0, 0, 129, 127, 62, 49, 65, 54, 161, 40, 135, 60, 26, 162, 138, 188, 118, 89, 169, 187, 0, 0, 129, 0, 127, 0, 0, 129, 201, 49, 3, 54, 230, 39, 153, 61, 26, 162, 138, 188, 118, 89, 169, 187, 0, 0, 129, 0, 127, 0, 0, 129, 83, 50, 3, 54, 3, 107, 156, 60, 247, 132, 151, 59, 220, 159, 40, 187, 0, 0, 129, 0, 127, 0, 0, 129, 201, 49, 229, 53, 78, 215, 147, 61, 247, 132, 151, 59, 220, 159, 40, 187, 0, 0, 129, 0, 127, 0, 0, 129, 83, 50, 229, 53, 194, 120, 14, 61, 26, 162, 138, 188, 140, 154, 48, 61, 0, 0, 127, 0, 127, 0, 0, 127, 15, 49, 3, 54, 116, 133, 192, 188, 26, 162, 138, 188, 140, 154, 48, 61, 0, 0, 127, 0, 127, 0, 0, 127, 133, 48, 3, 54, 146, 215, 3, 61, 247, 132, 151, 59, 90, 249, 37, 61, 0, 0, 127, 0, 127, 0, 0, 127, 15, 49, 229, 53, 18, 67, 171, 188, 104, 78, 151, 188, 90, 249, 37, 61, 0, 0, 127, 0, 127, 0, 0, 127, 133, 48, 229, 53, 0, 6, 203, 60, 26, 162, 138, 188, 220, 171, 14, 61, 0, 0, 129, 0, 127, 0, 0, 129, 108, 49, 127, 54, 194, 120, 14, 61, 26, 162, 138, 188, 220, 171, 14, 61, 0, 0, 129, 0, 126, 0, 0, 129, 154, 49, 127, 54, 158, 195, 181, 60, 247, 132, 151, 59, 12, 77, 25, 61, 0, 0, 129, 0, 126, 0, 0, 129, 108, 49, 96, 54, 146, 215, 3, 61, 104, 78, 151, 188, 12, 77, 25, 61, 0, 0, 129, 0, 127, 0, 0, 129, 154, 49, 96, 54, 230, 39, 153, 61, 26, 162, 138, 188, 118, 89, 169, 187, 127, 0, 0, 0, 0, 0, 129, 127, 59, 51, 3, 54, 230, 39, 153, 61, 26, 162, 138, 188, 234, 189, 149, 61, 127, 0, 0, 0, 0, 0, 129, 127, 83, 50, 3, 54, 78, 215, 147, 61, 247, 132, 151, 59, 220, 159, 40, 187, 127, 0, 0, 0, 0, 0, 129, 127, 59, 51, 229, 53, 78, 215, 147, 61, 247, 132, 151, 59, 81, 109, 144, 61, 127, 0, 0, 0, 0, 0, 129, 127, 83, 50, 229, 53, 23, 53, 180, 61, 53, 185, 2, 188, 146, 13, 96, 188, 0, 89, 167, 0, 127, 0, 0, 127, 15, 41, 115, 52, 164, 186, 18, 62, 53, 185, 2, 188, 146, 13, 96, 188, 0, 89, 167, 0, 127, 0, 0, 127, 59, 43, 115, 52, 109, 162, 181, 61, 34, 229, 20, 60, 77, 105, 4, 60, 0, 89, 167, 0, 127, 0, 0, 127, 15, 41, 146, 52, 249, 3, 18, 62, 34, 229, 20, 60, 78, 105, 4, 60, 0, 89, 167, 0, 127, 0, 0, 127, 59, 43, 146, 52, 23, 53, 180, 61, 53, 185, 2, 188, 146, 13, 96, 188, 0, 0, 129, 0, 127, 0, 0, 129, 15, 41, 84, 52, 81, 38, 177, 61, 160, 141, 220, 188, 197, 131, 120, 188, 0, 0, 129, 0, 127, 0, 0, 129, 15, 41, 115, 52, 164, 186, 18, 62, 53, 185, 2, 188, 146, 13, 96, 188, 0, 0, 129, 0, 127, 0, 0, 129, 59, 43, 84, 52, 8, 66, 20, 62, 160, 141, 220, 188, 197, 131, 120, 188, 0, 0, 129, 0, 127, 0, 0, 129, 59, 43, 115, 52, 230, 61, 46, 62, 216, 127, 29, 188, 62, 179, 164, 61, 0, 127, 0, 0, 127, 0, 0, 127, 8, 52, 120, 56, 225, 41, 164, 61, 216, 127, 29, 188, 62, 179, 164, 61, 0, 127, 0, 0, 127, 0, 0, 127, 113, 50, 120, 56, 230, 61, 46, 62, 216, 127, 29, 188, 60, 102, 160, 188, 0, 127, 0, 0, 127, 0, 0, 127, 8, 52, 134, 55, 225, 41, 164, 61, 216, 127, 29, 188, 60, 102, 160, 188, 0, 127, 0, 0, 127, 0, 0, 127, 113, 50, 134, 55 ),
"array_index_data": PoolByteArray( 0, 0, 2, 0, 1, 0, 2, 0, 3, 0, 1, 0, 4, 0, 6, 0, 5, 0, 6, 0, 7, 0, 5, 0, 8, 0, 10, 0, 9, 0, 10, 0, 11, 0, 9, 0, 12, 0, 14, 0, 13, 0, 14, 0, 15, 0, 13, 0, 16, 0, 18, 0, 17, 0, 18, 0, 19, 0, 17, 0, 20, 0, 22, 0, 21, 0, 22, 0, 23, 0, 21, 0, 24, 0, 26, 0, 25, 0, 26, 0, 27, 0, 25, 0, 28, 0, 30, 0, 29, 0, 30, 0, 31, 0, 29, 0, 32, 0, 34, 0, 33, 0, 34, 0, 35, 0, 33, 0, 36, 0, 38, 0, 37, 0, 38, 0, 39, 0, 37, 0, 40, 0, 42, 0, 41, 0, 42, 0, 43, 0, 41, 0, 44, 0, 46, 0, 45, 0, 46, 0, 47, 0, 45, 0, 48, 0, 50, 0, 49, 0, 50, 0, 51, 0, 49, 0, 52, 0, 54, 0, 53, 0, 54, 0, 55, 0, 53, 0, 56, 0, 58, 0, 57, 0, 58, 0, 59, 0, 57, 0, 60, 0, 62, 0, 61, 0, 62, 0, 63, 0, 61, 0, 64, 0, 66, 0, 65, 0, 66, 0, 67, 0, 65, 0, 68, 0, 70, 0, 69, 0, 70, 0, 71, 0, 69, 0, 72, 0, 74, 0, 73, 0, 74, 0, 75, 0, 73, 0, 76, 0, 78, 0, 77, 0, 78, 0, 79, 0, 77, 0, 80, 0, 82, 0, 81, 0, 82, 0, 83, 0, 81, 0, 83, 0, 84, 0, 81, 0, 85, 0, 87, 0, 86, 0, 87, 0, 88, 0, 86, 0, 88, 0, 89, 0, 86, 0, 90, 0, 92, 0, 91, 0, 92, 0, 93, 0, 91, 0, 94, 0, 96, 0, 95, 0, 96, 0, 97, 0, 95, 0, 98, 0, 100, 0, 99, 0, 100, 0, 101, 0, 99, 0, 102, 0, 104, 0, 103, 0, 104, 0, 105, 0, 103, 0, 106, 0, 108, 0, 107, 0, 108, 0, 109, 0, 107, 0, 110, 0, 112, 0, 111, 0, 113, 0, 115, 0, 114, 0, 115, 0, 116, 0, 114, 0, 116, 0, 117, 0, 114, 0, 118, 0, 120, 0, 119, 0, 120, 0, 121, 0, 119, 0, 122, 0, 124, 0, 123, 0, 124, 0, 125, 0, 123, 0, 126, 0, 128, 0, 127, 0, 128, 0, 129, 0, 127, 0, 130, 0, 132, 0, 131, 0, 132, 0, 133, 0, 131, 0, 134, 0, 136, 0, 135, 0, 136, 0, 137, 0, 135, 0, 138, 0, 140, 0, 139, 0, 140, 0, 141, 0, 139, 0, 142, 0, 144, 0, 143, 0, 144, 0, 145, 0, 143, 0, 146, 0, 148, 0, 147, 0, 148, 0, 149, 0, 147, 0, 150, 0, 152, 0, 151, 0, 152, 0, 153, 0, 151, 0, 154, 0, 156, 0, 155, 0, 156, 0, 157, 0, 155, 0, 158, 0, 160, 0, 159, 0, 160, 0, 161, 0, 159, 0, 162, 0, 164, 0, 163, 0, 164, 0, 165, 0, 163, 0, 166, 0, 168, 0, 167, 0, 168, 0, 169, 0, 167, 0, 170, 0, 172, 0, 171, 0, 172, 0, 173, 0, 171, 0, 174, 0, 176, 0, 175, 0, 176, 0, 177, 0, 175, 0, 178, 0, 180, 0, 179, 0, 181, 0, 183, 0, 182, 0, 183, 0, 184, 0, 182, 0, 184, 0, 185, 0, 182, 0, 186, 0, 188, 0, 187, 0, 189, 0, 191, 0, 190, 0, 192, 0, 194, 0, 193, 0, 194, 0, 195, 0, 193, 0, 196, 0, 198, 0, 197, 0, 198, 0, 199, 0, 197, 0, 200, 0, 202, 0, 201, 0, 202, 0, 203, 0, 201, 0, 204, 0, 206, 0, 205, 0, 206, 0, 207, 0, 205, 0, 208, 0, 210, 0, 209, 0, 210, 0, 211, 0, 209, 0, 212, 0, 214, 0, 213, 0, 214, 0, 215, 0, 213, 0, 216, 0, 218, 0, 217, 0, 218, 0, 219, 0, 217, 0, 220, 0, 222, 0, 221, 0, 222, 0, 223, 0, 221, 0 ),
"blend_shape_data": [  ],
"format": 97559,
"index_count": 336,
"primitive": 4,
"skeleton_aabb": [  ],
"vertex_count": 224
}

[sub_resource type="BoxShape" id=2]
extents = Vector3( 0.120728, 0.0835726, 0.062474 )

[sub_resource type="BoxShape" id=3]
extents = Vector3( 0.121889, 0.085314, 0.0147481 )

[sub_resource type="BoxShape" id=4]
extents = Vector3( 0.165862, 0.0117216, 0.0609028 )

[sub_resource type="AtlasTexture" id=5]
atlas = ExtResource( 4 )
region = Rect2( 19, 13, 19, 13 )

[node name="Computer" type="StaticBody"]
script = ExtResource( 3 )

[node name="Outliner" parent="." instance=ExtResource( 8 )]

[node name="outline" type="MeshInstance" parent="Outliner"]
mesh = SubResource( 1 )
material/0 = ExtResource( 7 )

[node name="computer" type="MeshInstance" parent="."]
mesh = ExtResource( 2 )
material/0 = ExtResource( 1 )

[node name="CollisionShape" type="CollisionShape" parent="."]
transform = Transform( 1, 0, 0, 0, 1, 0, 0, 0, 1, -0.00874606, 0.0571275, -0.105961 )
shape = SubResource( 2 )

[node name="Area" type="Area" parent="."]

[node name="Screen" type="CollisionShape" parent="Area"]
transform = Transform( 1, 0, 0, 0, 1, 0, 0, 0, 1, -0.00874606, 0.0571275, -0.0369938 )
shape = SubResource( 3 )

[node name="Keyboard" type="CollisionShape" parent="Area"]
transform = Transform( 1, 0, 0, 0, 1, 0, 0, 0, 1, 0.00501716, -0.0164959, 0.00646852 )
shape = SubResource( 4 )

[node name="Sprite3D" type="Sprite3D" parent="."]
transform = Transform( 1, 0, 0, 0, 1, 0, 0, 0, 1, -0.00416176, 0.0549454, -0.0566996 )
texture = SubResource( 5 )

[node name="FailSound" type="AudioStreamPlayer3D" parent="."]
stream = ExtResource( 5 )
unit_db = 3.0

[node name="BootSound" type="AudioStreamPlayer3D" parent="."]
stream = ExtResource( 6 )
unit_db = 9.0

[connection signal="mouse_entered" from="." to="Outliner" method="on_mouse_entered"]
[connection signal="mouse_exited" from="." to="Outliner" method="on_mouse_exited"]
[connection signal="input_event" from="Area" to="." method="_on_Area_input_event"]
[connection signal="mouse_entered" from="Area" to="Outliner" method="on_mouse_entered"]
[connection signal="mouse_exited" from="Area" to="Outliner" method="on_mouse_exited"]
