[gd_resource type="SpatialMaterial" load_steps=2 format=2]

[ext_resource path="res://graphics/texturesheet.png" type="Texture" id=1]

[resource]
params_diffuse_mode = 4
albedo_color = Color( 0.172549, 0.172549, 0.172549, 1 )
albedo_texture = ExtResource( 1 )
emission_enabled = true
emission = Color( 0.164706, 0.164706, 0.164706, 1 )
emission_energy = 1.0
emission_operator = 0
emission_on_uv2 = false
